# From sources.url
https://ransomwaretracker.abuse.ch/downloads/RW_URLBL.txt
https://ransomwaretracker.abuse.ch/downloads/CW_C2_URLBL.txt
https://ransomwaretracker.abuse.ch/downloads/TC_C2_URLBL.txt
https://ransomwaretracker.abuse.ch/downloads/TC_DS_URLBL.txt
https://ransomwaretracker.abuse.ch/downloads/LY_DS_URLBL.txt
# From: sources.flat
http://pgl.yoyo.org/adservers/serverlist.php?hostformat=nohtml&showintro=0
http://www.fussle.de/block.txt
http://mirror1.malwaredomains.com/files/justdomains
https://s3.amazonaws.com/lists.disconnect.me/simple_ad.txt
https://s3.amazonaws.com/lists.disconnect.me/simple_tracking.txt
http://malwaredomains.lehigh.edu/files/domains.txt
https://ransomwaretracker.abuse.ch/downloads/RW_DOMBL.txt
https://ransomwaretracker.abuse.ch/downloads/CW_C2_DOMBL.txt
https://ransomwaretracker.abuse.ch/downloads/CW_PS_DOMBL.txt
https://ransomwaretracker.abuse.ch/downloads/TC_C2_DOMBL.txt
https://ransomwaretracker.abuse.ch/downloads/TC_PS_DOMBL.txt
https://ransomwaretracker.abuse.ch/downloads/LY_C2_DOMBL.txt
https://ransomwaretracker.abuse.ch/downloads/LY_PS_DOMBL.txt
https://ransomwaretracker.abuse.ch/downloads/TL_C2_DOMBL.txt
https://ransomwaretracker.abuse.ch/downloads/TL_PS_DOMBL.txt
https://zeustracker.abuse.ch/blocklist.php?download=baddomains
https://zeustracker.abuse.ch/blocklist.php?download=domainblocklist
# From sources.127
http://adblock.mahakala.is/hosts
http://someonewhocares.org/hosts/hosts
http://sysctl.org/cameleon/hosts
https://raw.githubusercontent.com/StevenBlack/hosts/master/hosts
http://sbc.io/hosts/hosts
http://sbc.io/hosts/alternates/fakenews/hosts
https://raw.githubusercontent.com/StevenBlack/hosts/master/data/KADhosts/hosts
https://adaway.org/hosts.txt
http://www.malwaredomainlist.com/hostslist/hosts.txt
http://winhelp2002.mvps.org/hosts.txt
# From: https://firebog.net/
https://hosts-file.net/grm.txt
https://reddestdream.github.io/Projects/MinimalHosts/etc/MinimalHostsBlocker/minimalhosts
https://raw.githubusercontent.com/StevenBlack/hosts/master/data/KADhosts/hosts
https://raw.githubusercontent.com/StevenBlack/hosts/master/data/add.Spam/hosts
https://v.firebog.net/hosts/static/w3kbl.txt
https://v.firebog.net/hosts/BillStearns.txt
http://sysctl.org/cameleon/hosts
https://raw.githubusercontent.com/CHEF-KOCH/BarbBlock-filter-list/master/HOSTS.txt
https://www.dshield.org/feeds/suspiciousdomains_Low.txt
https://www.joewein.net/dl/bl/dom-bl-base.txt
https://raw.githubusercontent.com/matomo-org/referrer-spam-blacklist/master/spammers.txt
https://hostsfile.org/Downloads/hosts.txt
http://someonewhocares.org/hosts/zero/hosts
https://raw.githubusercontent.com/Dawsey21/Lists/master/main-blacklist.txt
https://raw.githubusercontent.com/vokins/yhosts/master/hosts
http://winhelp2002.mvps.org/hosts.txt
https://hostsfile.mine.nu/hosts0.txt
https://v.firebog.net/hosts/Kowabit.txt
https://adblock.mahakala.is
https://adaway.org/hosts.txt
https://v.firebog.net/hosts/AdguardDNS.txt
https://s3.amazonaws.com/lists.disconnect.me/simple_ad.txt
https://hosts-file.net/ad_servers.txt
https://v.firebog.net/hosts/Easylist.txt
https://raw.githubusercontent.com/CHEF-KOCH/CKs-FilterList/master/HOSTS/CK's-Spotify-HOSTS-FilterList.txt
https://pgl.yoyo.org/adservers/serverlist.php?hostformat=hosts;showintro=0
https://raw.githubusercontent.com/StevenBlack/hosts/master/data/UncheckyAds/hosts
https://v.firebog.net/hosts/Easyprivacy.txt
https://v.firebog.net/hosts/Prigent-Ads.txt
https://raw.githubusercontent.com/quidsup/notrack/master/trackers.txt
https://raw.githubusercontent.com/StevenBlack/hosts/master/data/add.2o7Net/hosts
https://raw.githubusercontent.com/crazy-max/WindowsSpyBlocker/master/data/hosts/spy.txt
https://v.firebog.net/hosts/Airelle-trc.txt
https://raw.githubusercontent.com/CHEF-KOCH/Canvas-Font-Fingerprinting-pages/master/Canvas.txt
https://raw.githubusercontent.com/CHEF-KOCH/WebRTC-tracking/master/WebRTC.txt
https://raw.githubusercontent.com/CHEF-KOCH/Audio-fingerprint-pages/master/AudioFp.txt
https://raw.githubusercontent.com/CHEF-KOCH/Canvas-fingerprinting-pages/master/Canvas.txt
https://raw.githubusercontent.com/Perflyst/PiHoleBlocklist/master/android-tracking.txt
https://raw.githubusercontent.com/Perflyst/PiHoleBlocklist/master/SmartTV.txt
https://s3.amazonaws.com/lists.disconnect.me/simple_malvertising.txt
https://mirror1.malwaredomains.com/files/justdomains
https://hosts-file.net/exp.txt
https://hosts-file.net/emd.txt
https://hosts-file.net/psh.txt
https://mirror.cedia.org.ec/malwaredomains/immortal_domains.txt
https://www.malwaredomainlist.com/hostslist/hosts.txt
https://bitbucket.org/ethanr/dns-blacklists/raw/8575c9f96e5b4a1308f2f12394abd86d0927a4a0/bad_lists/Mandiant_APT1_Report_Appendix_D.txt
https://v.firebog.net/hosts/Prigent-Malware.txt
https://v.firebog.net/hosts/Prigent-Phishing.txt
https://raw.githubusercontent.com/quidsup/notrack/master/malicious-sites.txt
https://ransomwaretracker.abuse.ch/downloads/RW_DOMBL.txt
https://v.firebog.net/hosts/Shalla-mal.txt
https://raw.githubusercontent.com/StevenBlack/hosts/master/data/add.Risk/hosts
https://zeustracker.abuse.ch/blocklist.php?download=domainblocklist
https://v.firebog.net/hosts/Airelle-hrsk.txt
https://github.com/chadmayfield/pihole-blocklists/raw/master/lists/pi_blocklist_porn_all.list
https://raw.githubusercontent.com/chadmayfield/pihole-blocklists/master/lists/pi_blocklist_porn_top1m.list
https://zerodot1.gitlab.io/CoinBlockerLists/hosts
# From zerodot1.gitlab.com
https://zerodot1.gitlab.io/CoinBlockerLists/hosts
# From: github.com
https://raw.githubusercontent.com/Marfjeh/coinhive-block/master/domains